Bulle d’R. Manipulation de données dans l’univers du tidyverse
…
Filtrer des observations avec la fonction filter()

Filtre sur un seul critère

 >> On filtre les individus dont l’occupation principale est “Exerce une profession”

hdv2003 |> 
  filter(occup == "Exerce une profession")

# A tibble: 1,049 × 20
      id   age sexe  nivetud       poids occup qualif freres.soeurs clso  relig trav.imp trav.satisf
   <int> <int> <chr> <fct>         <dbl> <fct> <fct>          <int> <chr> <fct> <fct>    <fct>      
 1     1    28 Femme Enseignemen…  2634. Exer… Emplo…             8 Oui   Ni c… Peu imp… Insatisfac…
 2     3    59 Homme Derniere an…  3994. Exer… Techn…             2 Non   Ni c… Aussi i… Equilibre  
 3     4    34 Homme Enseignemen…  5732. Exer… Techn…             1 Non   Appa… Moins i… Satisfacti…
 4     6    35 Femme Enseignemen…  8675. Exer… Emplo…             5 Non   Ni c… Le plus… Equilibre  
 5     8    47 Homme Enseignemen… 12892. Exer… Ouvri…             5 Non   Ni c… Peu imp… Insatisfac…
 6    10    28 Homme Enseignemen…  2277. Exer… Autre              2 Non   Prat… Moins i… Satisfacti…
 7    12    47 Homme 2eme cycle    6698. Exer… Ouvri…             4 Oui   Appa… Moins i… Satisfacti…
 8    14    67 Femme Enseignemen…   587. Exer… <NA>               5 Oui   Prat… Moins i… Satisfacti…
 9    16    49 Femme Enseignemen…  9958. Exer… Emplo…             3 Non   Prat… Moins i… Equilibre  
10    20    39 Femme Enseignemen… 27196. Exer… Ouvri…             5 Non   Appa… Moins i… Satisfacti…
# ℹ 1,039 more rows
# ℹ 8 more variables: hard.rock <fct>, lecture.bd <fct>, peche.chasse <fct>, cuisine <fct>,
#   bricol <fct>, cinema <fct>, sport <fct>, heures.tv <dbl>
…
R est sensible à la casse !

Bien faire attention aux majuscules/minuscules

Filtre sur plusieurs critères

Se fait grâce aux opérateurs & (ET) et | (OU)

 >> On filtre les femmes dont l’occupation principale est “Exerce une profession”

hdv2003 |> 
  filter(occup == "Exerce une profession" & sexe == "Femme")

# A tibble: 529 × 20
      id   age sexe  nivetud       poids occup qualif freres.soeurs clso  relig trav.imp trav.satisf
   <int> <int> <chr> <fct>         <dbl> <fct> <fct>          <int> <chr> <fct> <fct>    <fct>      
 1     1    28 Femme Enseignemen…  2634. Exer… Emplo…             8 Oui   Ni c… Peu imp… Insatisfac…
 2     6    35 Femme Enseignemen…  8675. Exer… Emplo…             5 Non   Ni c… Le plus… Equilibre  
 3    14    67 Femme Enseignemen…   587. Exer… <NA>               5 Oui   Prat… Moins i… Satisfacti…
 4    16    49 Femme Enseignemen…  9958. Exer… Emplo…             3 Non   Prat… Moins i… Equilibre  
 5    20    39 Femme Enseignemen… 27196. Exer… Ouvri…             5 Non   Appa… Moins i… Satisfacti…
 6    21    30 Femme Enseignemen… 14648. Exer… Emplo…             6 Oui   Appa… Moins i… Satisfacti…
 7    23    37 Femme Enseignemen…  1282. Exer… Emplo…             4 Non   Appa… Moins i… Satisfacti…
 8    25    20 Femme <NA>          8780. Exer… Ouvri…             0 Non   Appa… Moins i… Equilibre  
 9    27    31 Femme Enseignemen…  6663. Exer… Ouvri…             1 Non   Appa… Moins i… Equilibre  
10    36    41 Femme 1er cycle     7872. Exer… Emplo…             3 Oui   Rejet Moins i… Insatisfac…
# ℹ 519 more rows
# ℹ 8 more variables: hard.rock <fct>, lecture.bd <fct>, peche.chasse <fct>, cuisine <fct>,
#   bricol <fct>, cinema <fct>, sport <fct>, heures.tv <dbl>

 >> On souhaite filtrer les personnes avec la qualification professionnelle “Ouvrier specialise” ainsi que “Ouvrier qualifie”

| Avec l’opérateur | |
| Avec l’opérateur %in% |
| Avec la fonction str_detect() du package {stringr} |

hdv2003 |> 
  filter(qualif == "Ouvrier specialise" | qualif == "Ouvrier qualifie")

# A tibble: 495 × 20
      id   age sexe  nivetud       poids occup qualif freres.soeurs clso  relig trav.imp trav.satisf
   <int> <int> <chr> <fct>         <dbl> <fct> <fct>          <int> <chr> <fct> <fct>    <fct>      
 1     7    60 Femme Derniere an…  6166. Au f… Ouvri…             1 Oui   Appa… <NA>     <NA>       
 2     8    47 Homme Enseignemen… 12892. Exer… Ouvri…             5 Non   Ni c… Peu imp… Insatisfac…
 3    12    47 Homme 2eme cycle    6698. Exer… Ouvri…             4 Oui   Appa… Moins i… Satisfacti…
 4    19    70 Homme Derniere an…  3141. Retr… Ouvri…             2 Non   Appa… <NA>     <NA>       
 5    20    39 Femme Enseignemen… 27196. Exer… Ouvri…             5 Non   Appa… Moins i… Satisfacti…
 6    25    20 Femme <NA>          8780. Exer… Ouvri…             0 Non   Appa… Moins i… Equilibre  
 7    27    31 Femme Enseignemen…  6663. Exer… Ouvri…             1 Non   Appa… Moins i… Equilibre  
 8    28    35 Homme 1er cycle     3359. Exer… Ouvri…             6 Non   Ni c… Moins i… Equilibre  
 9    29    35 Homme Enseignemen…  8536. Exer… Ouvri…             2 Non   Appa… Moins i… Equilibre  
10    30    30 Homme Enseignemen… 10621. Exer… Ouvri…             1 Oui   Ni c… Aussi i… Satisfacti…
# ℹ 485 more rows
# ℹ 8 more variables: hard.rock <fct>, lecture.bd <fct>, peche.chasse <fct>, cuisine <fct>,
#   bricol <fct>, cinema <fct>, sport <fct>, heures.tv <dbl>

hdv2003 |> 
  filter(qualif %in% c("Ouvrier specialise", "Ouvrier qualifie"))

# A tibble: 495 × 20
      id   age sexe  nivetud       poids occup qualif freres.soeurs clso  relig trav.imp trav.satisf
   <int> <int> <chr> <fct>         <dbl> <fct> <fct>          <int> <chr> <fct> <fct>    <fct>      
 1     7    60 Femme Derniere an…  6166. Au f… Ouvri…             1 Oui   Appa… <NA>     <NA>       
 2     8    47 Homme Enseignemen… 12892. Exer… Ouvri…             5 Non   Ni c… Peu imp… Insatisfac…
 3    12    47 Homme 2eme cycle    6698. Exer… Ouvri…             4 Oui   Appa… Moins i… Satisfacti…
 4    19    70 Homme Derniere an…  3141. Retr… Ouvri…             2 Non   Appa… <NA>     <NA>       
 5    20    39 Femme Enseignemen… 27196. Exer… Ouvri…             5 Non   Appa… Moins i… Satisfacti…
 6    25    20 Femme <NA>          8780. Exer… Ouvri…             0 Non   Appa… Moins i… Equilibre  
 7    27    31 Femme Enseignemen…  6663. Exer… Ouvri…             1 Non   Appa… Moins i… Equilibre  
 8    28    35 Homme 1er cycle     3359. Exer… Ouvri…             6 Non   Ni c… Moins i… Equilibre  
 9    29    35 Homme Enseignemen…  8536. Exer… Ouvri…             2 Non   Appa… Moins i… Equilibre  
10    30    30 Homme Enseignemen… 10621. Exer… Ouvri…             1 Oui   Ni c… Aussi i… Satisfacti…
# ℹ 485 more rows
# ℹ 8 more variables: hard.rock <fct>, lecture.bd <fct>, peche.chasse <fct>, cuisine <fct>,
#   bricol <fct>, cinema <fct>, sport <fct>, heures.tv <dbl>

hdv2003 |> 
  filter(str_detect(qualif, "Ouvrier"))

# A tibble: 495 × 20
      id   age sexe  nivetud       poids occup qualif freres.soeurs clso  relig trav.imp trav.satisf
   <int> <int> <chr> <fct>         <dbl> <fct> <fct>          <int> <chr> <fct> <fct>    <fct>      
 1     7    60 Femme Derniere an…  6166. Au f… Ouvri…             1 Oui   Appa… <NA>     <NA>       
 2     8    47 Homme Enseignemen… 12892. Exer… Ouvri…             5 Non   Ni c… Peu imp… Insatisfac…
 3    12    47 Homme 2eme cycle    6698. Exer… Ouvri…             4 Oui   Appa… Moins i… Satisfacti…
 4    19    70 Homme Derniere an…  3141. Retr… Ouvri…             2 Non   Appa… <NA>     <NA>       
 5    20    39 Femme Enseignemen… 27196. Exer… Ouvri…             5 Non   Appa… Moins i… Satisfacti…
 6    25    20 Femme <NA>          8780. Exer… Ouvri…             0 Non   Appa… Moins i… Equilibre  
 7    27    31 Femme Enseignemen…  6663. Exer… Ouvri…             1 Non   Appa… Moins i… Equilibre  
 8    28    35 Homme 1er cycle     3359. Exer… Ouvri…             6 Non   Ni c… Moins i… Equilibre  
 9    29    35 Homme Enseignemen…  8536. Exer… Ouvri…             2 Non   Appa… Moins i… Equilibre  
10    30    30 Homme Enseignemen… 10621. Exer… Ouvri…             1 Oui   Ni c… Aussi i… Satisfacti…
# ℹ 485 more rows
# ℹ 8 more variables: hard.rock <fct>, lecture.bd <fct>, peche.chasse <fct>, cuisine <fct>,
#   bricol <fct>, cinema <fct>, sport <fct>, heures.tv <dbl>
…
La fonction arrange() trie les valeurs par ordre croissant par défaut, mais on peut trier par ordre décroissant grâce à la fonction desc()

hdv2003 |> 
  arrange(desc(age))

# A tibble: 2,000 × 20
      id   age sexe  nivetud       poids occup qualif freres.soeurs clso  relig trav.imp trav.satisf
   <int> <int> <chr> <fct>         <dbl> <fct> <fct>          <int> <chr> <fct> <fct>    <fct>      
 1  1916    97 Femme Derniere an…  2163. Autr… Autre              5 Non   Prat… <NA>     <NA>       
 2   270    96 Femme Derniere an…  9993. Retr… <NA>               1 Oui   Ni c… <NA>     <NA>       
 3  1542    93 Femme Derniere an…  7108. Reti… <NA>               7 Non   Prat… <NA>     <NA>       
 4   235    92 Homme N'a jamais …   827. Retr… Ouvri…             0 Ne s… Prat… <NA>     <NA>       
 5  1151    91 Homme Derniere an…  4291. Reti… <NA>               3 Oui   Appa… <NA>     <NA>       
 6    96    90 Femme Derniere an…  5875. Au f… Emplo…             7 Non   Prat… <NA>     <NA>       
 7  1122    90 Femme 1er cycle    14812. Retr… Emplo…             3 Oui   Prat… <NA>     <NA>       
 8  1767    90 Femme Derniere an… 12266. Reti… <NA>               2 Non   Appa… <NA>     <NA>       
 9   759    89 Femme Derniere an…  9555. Au f… <NA>               1 Non   Prat… <NA>     <NA>       
10   971    89 Homme Derniere an…  2374. Retr… Ouvri…             5 Oui   Prat… <NA>     <NA>       
# ℹ 1,990 more rows
# ℹ 8 more variables: hard.rock <fct>, lecture.bd <fct>, peche.chasse <fct>, cuisine <fct>,
#   bricol <fct>, cinema <fct>, sport <fct>, heures.tv <dbl>

Tri sur plusieurs critères

 >> On trie les données par ordre alphabétique croissant pour la variable ‘sexe’ et par valeurs décroissantes pour la variable ‘age’

hdv2003 |> 
  arrange(sexe, desc(age))

# A tibble: 2,000 × 20
      id   age sexe  nivetud       poids occup qualif freres.soeurs clso  relig trav.imp trav.satisf
   <int> <int> <chr> <fct>         <dbl> <fct> <fct>          <int> <chr> <fct> <fct>    <fct>      
 1  1916    97 Femme Derniere an…  2163. Autr… Autre              5 Non   Prat… <NA>     <NA>       
 2   270    96 Femme Derniere an…  9993. Retr… <NA>               1 Oui   Ni c… <NA>     <NA>       
 3  1542    93 Femme Derniere an…  7108. Reti… <NA>               7 Non   Prat… <NA>     <NA>       
 4    96    90 Femme Derniere an…  5875. Au f… Emplo…             7 Non   Prat… <NA>     <NA>       
 5  1122    90 Femme 1er cycle    14812. Retr… Emplo…             3 Oui   Prat… <NA>     <NA>       
 6  1767    90 Femme Derniere an… 12266. Reti… <NA>               2 Non   Appa… <NA>     <NA>       
 7   759    89 Femme Derniere an…  9555. Au f… <NA>               1 Non   Prat… <NA>     <NA>       
 8  1117    89 Femme A arrete se…  5677. Au f… Ouvri…             5 Oui   Appa… <NA>     <NA>       
 9  1127    89 Femme A arrete se… 25986. Autr… <NA>               2 Non   Appa… <NA>     <NA>       
10  1516    88 Femme Derniere an… 15686. Reti… <NA>               2 Non   Prat… <NA>     <NA>       
# ℹ 1,990 more rows
# ℹ 8 more variables: hard.rock <fct>, lecture.bd <fct>, peche.chasse <fct>, cuisine <fct>,
#   bricol <fct>, cinema <fct>, sport <fct>, heures.tv <dbl>

Sélectionner des colonnes avec select()

Sélection d’une seule variable

2 possibilités, avec la fonction select() ou avec la fonction pull()

 >> On sélectionne la variable ‘sexe’

hdv2003 |> 
  select(sexe)

# A tibble: 2,000 × 1
   sexe 
   <chr>
 1 Femme
 2 Femme
 3 Homme
 4 Homme
 5 Femme
 6 Femme
 7 Femme
 8 Homme
 9 Femme
10 Homme
# ℹ 1,990 more rows
…
Quelle différence entre pull() et select() ?

La fonction pull() renvoie une seule colonne sous forme de vecteur.

La fonction select() renvoie une ou plusieurs colonnes sous forme de dataframe.

Sélectionner plusieurs variables avec select()

 >> On sélectionne UNIQUEMENT les variables ‘sexe’ et ‘age’

hdv2003 |> 
  select(sexe, age)

# A tibble: 2,000 × 2
   sexe    age
   <chr> <int>
 1 Femme    28
 2 Femme    23
 3 Homme    59
 4 Homme    34
 5 Femme    71
 6 Femme    35
 7 Femme    60
 8 Homme    47
 9 Femme    20
10 Homme    28
# ℹ 1,990 more rows

 >> On sélectionne toutes les variables SAUF les variables ‘sexe’ et ‘age’

hdv2003 |> 
  select(-c(sexe, age))

# A tibble: 2,000 × 18
      id nivetud         poids occup qualif freres.soeurs clso  relig trav.imp trav.satisf hard.rock
   <int> <fct>           <dbl> <fct> <fct>          <int> <chr> <fct> <fct>    <fct>       <fct>    
 1     1 Enseignement …  2634. Exer… Emplo…             8 Oui   Ni c… Peu imp… Insatisfac… Non      
 2     2 <NA>            9738. Etud… <NA>               2 Oui   Ni c… <NA>     <NA>        Non      
 3     3 Derniere anne…  3994. Exer… Techn…             2 Non   Ni c… Aussi i… Equilibre   Non      
 4     4 Enseignement …  5732. Exer… Techn…             1 Non   Appa… Moins i… Satisfacti… Non      
 5     5 Derniere anne…  4329. Retr… Emplo…             0 Oui   Prat… <NA>     <NA>        Non      
 6     6 Enseignement …  8675. Exer… Emplo…             5 Non   Ni c… Le plus… Equilibre   Non      
 7     7 Derniere anne…  6166. Au f… Ouvri…             1 Oui   Appa… <NA>     <NA>        Non      
 8     8 Enseignement … 12892. Exer… Ouvri…             5 Non   Ni c… Peu imp… Insatisfac… Non      
 9     9 <NA>            7809. Etud… <NA>               4 Oui   Appa… <NA>     <NA>        Non      
10    10 Enseignement …  2277. Exer… Autre              2 Non   Prat… Moins i… Satisfacti… Non      
# ℹ 1,990 more rows
# ℹ 7 more variables: lecture.bd <fct>, peche.chasse <fct>, cuisine <fct>, bricol <fct>,
#   cinema <fct>, sport <fct>, heures.tv <dbl>

 >> On sélectionne toutes les variables dont le nom contient “trav”

hdv2003 |> 
  select(contains("trav"))

# A tibble: 2,000 × 2
   trav.imp                     trav.satisf   
   <fct>                        <fct>         
 1 Peu important                Insatisfaction
 2 <NA>                         <NA>          
 3 Aussi important que le reste Equilibre     
 4 Moins important que le reste Satisfaction  
 5 <NA>                         <NA>          
 6 Le plus important            Equilibre     
 7 <NA>                         <NA>          
 8 Peu important                Insatisfaction
 9 <NA>                         <NA>          
10 Moins important que le reste Satisfaction  
# ℹ 1,990 more rows
…
Il y a donc des valeurs manquantes dans

les colonnes de data1 pour les observations de data2 qui n’existent pas dans data1

les colonnes de data2 pour les observations de data1 qui n’existent pas dans data2

Ajouter une colonne d’identifiants avec rownames_to_column()

Pour les cas où il n’y a pas d’identifiant dans le jeu de données ou que l’identifiant n’est pas dans une colonne mais dans rownames, on utilise la fonction rownames_to_column() qui va ajouter les noms de lignes dans une colonne, qui contiendra ainsi un identifiant unique pour chaque observation

hdv2003 |>
  rownames_to_column(var = "identifiant")

# A tibble: 2,000 × 23
   identifiant    id   age an.naissance sexe  nivetud   poids occup qualif freres.soeurs clso  relig
   <chr>       <int> <int>        <dbl> <chr> <fct>     <dbl> <fct> <fct>          <int> <chr> <fct>
 1 1               1    28         1975 Femme Enseign…  2634. Exer… Emplo…             8 Oui   Ni c…
 2 2               2    23         1980 Femme <NA>      9738. Etud… <NA>               2 Oui   Ni c…
 3 3               3    59         1944 Homme Dernier…  3994. Exer… Techn…             2 Non   Ni c…
 4 4               4    34         1969 Homme Enseign…  5732. Exer… Techn…             1 Non   Appa…
 5 5               5    71         1932 Femme Dernier…  4329. Retr… Emplo…             0 Oui   Prat…
 6 6               6    35         1968 Femme Enseign…  8675. Exer… Emplo…             5 Non   Ni c…
 7 7               7    60         1943 Femme Dernier…  6166. Au f… Ouvri…             1 Oui   Appa…
 8 8               8    47         1956 Homme Enseign… 12892. Exer… Ouvri…             5 Non   Ni c…
 9 9               9    20         1983 Femme <NA>      7809. Etud… <NA>               4 Oui   Appa…
10 10             10    28         1975 Homme Enseign…  2277. Exer… Autre              2 Non   Prat…
# ℹ 1,990 more rows
# ℹ 11 more variables: trav.imp <fct>, trav.satisf <fct>, hard.rock <fct>, lecture.bd <fct>,
#   peche.chasse <fct>, cuisine <fct>, bricol <fct>, cinema <fct>, sport <fct>, heures.tv <dbl>,
#   cl_age <chr>
…
# A tibble: 1 × 8
  age_moyenne age_ecarttype poids_moyenne poids_ecarttype freres.soeurs_moyenne
        <dbl>         <dbl>         <dbl>           <dbl>                 <dbl>
1        48.2          16.9         5536.           4375.                  3.28
# ℹ 3 more variables: freres.soeurs_ecarttype <dbl>, heures.tv_moyenne <dbl>,
#   heures.tv_ecarttype <dbl>

group_by() fonctionne pour tous les verbes vus précédemment, sauf arrange(), qui trie la table sans tenir compte des groupes

hdv2003 |>
  group_by(sexe) |> 
  arrange(desc(age))

# A tibble: 2,000 × 22
# Groups:   sexe [2]
      id   age an.naissance sexe  nivetud      poids occup qualif freres.soeurs clso  relig trav.imp
   <int> <int>        <dbl> <chr> <fct>        <dbl> <fct> <fct>          <int> <chr> <fct> <fct>   
 1  1916    97         1906 Femme Derniere a…  2163. Autr… Autre              5 Non   Prat… <NA>    
 2   270    96         1907 Femme Derniere a…  9993. Retr… <NA>               1 Oui   Ni c… <NA>    
 3  1542    93         1910 Femme Derniere a…  7108. Reti… <NA>               7 Non   Prat… <NA>    
 4   235    92         1911 Homme N'a jamais…   827. Retr… Ouvri…             0 Ne s… Prat… <NA>    
 5  1151    91         1912 Homme Derniere a…  4291. Reti… <NA>               3 Oui   Appa… <NA>    
 6    96    90         1913 Femme Derniere a…  5875. Au f… Emplo…             7 Non   Prat… <NA>    
 7  1122    90         1913 Femme 1er cycle   14812. Retr… Emplo…             3 Oui   Prat… <NA>    
 8  1767    90         1913 Femme Derniere a… 12266. Reti… <NA>               2 Non   Appa… <NA>    
 9   759    89         1914 Femme Derniere a…  9555. Au f… <NA>               1 Non   Prat… <NA>    
10   971    89         1914 Homme Derniere a…  2374. Retr… Ouvri…             5 Oui   Prat… <NA>    
# ℹ 1,990 more rows
# ℹ 10 more variables: trav.satisf <fct>, hard.rock <fct>, lecture.bd <fct>, peche.chasse <fct>,
#   cuisine <fct>, bricol <fct>, cinema <fct>, sport <fct>, heures.tv <dbl>, cl_age <chr>
…
